…
``` r
anti_join(bakers, bakes, by = "baker_name")
```

    ## # A tibble: 23 × 5
    ##    baker_name series baker_age baker_occupation               hometown     
    ##    <chr>       <dbl>     <dbl> <chr>                          <chr>        
    ##  1 Alice          10        28 Geography teacher              Essex        
    ##  2 Amelia         10        24 Fashion designer               Halifax      
    ##  3 Antony          9        30 Banker                         London       
    ##  4 Briony          9        33 Full-time parent               Bristol      
    ##  5 Dan             9        36 Full-time parent               London       
    ##  6 Dan            10        32 Support worker                 Rotherham    
    ##  7 Helena         10        40 Online project manager         Leeds        
    ##  8 Henry          10        20 Student                        Durham       
    ##  9 Imelda          9        33 Countryside recreation officer County Tyrone
    ## 10 Jamie          10        20 Part-time waiter               Surrey       
    ## # ℹ 13 more rows

``` r
anti_join(bakers, results, by = "baker_name")
```

    ## # A tibble: 1 × 5
    ##   baker_name series baker_age baker_occupation hometown    
    ##   <chr>       <dbl>     <dbl> <chr>            <chr>       
    ## 1 Jo              2        41 Housewife        Ongar, Essex

``` r
anti_join(results, bakes, by = "baker_name")
```

    ## # A tibble: 228 × 5
    ##    series episode baker_name technical result    
    ##     <dbl>   <dbl> <chr>          <dbl> <chr>     
    ##  1      2       1 Joanne            11 IN        
    ##  2      2       2 Joanne            10 IN        
    ##  3      2       3 Joanne             1 IN        
    ##  4      2       4 Joanne             8 IN        
    ##  5      2       5 Joanne             6 IN        
    ##  6      2       6 Joanne             1 STAR BAKER
    ##  7      2       7 Joanne             3 IN        
    ##  8      2       8 Joanne             1 WINNER    
    ##  9      9       1 Antony            12 IN        
    ## 10      9       1 Briony             2 IN        
    ## # ℹ 218 more rows
…
